…
There is more of a change in the fluorescence values at high
temperature.

Calculate mean change in blank at each time point.

``` r
blanks<-full_data%>%
  filter(type=="blank")%>%
  group_by(date, plate, temperature, timepoint, volume)%>%
  summarise(mean_blank=mean(fluorescence.norm));blanks
```

    ## # A tibble: 30 × 6
    ## # Groups:   date, plate, temperature, timepoint [10]
    ##    date     plate  temperature timepoint volume mean_blank
    ##    <chr>    <chr>  <chr>       <chr>     <chr>       <dbl>
    ##  1 20250114 plate1 control     0         100uL       1    
    ##  2 20250114 plate1 control     0         200uL       1    
    ##  3 20250114 plate1 control     0         300uL       1    
    ##  4 20250114 plate1 control     1         100uL       0.988
    ##  5 20250114 plate1 control     1         200uL       1.01 
    ##  6 20250114 plate1 control     1         300uL       1.02 
    ##  7 20250114 plate1 control     2         100uL       1.01 
    ##  8 20250114 plate1 control     2         200uL       1.03 
    ##  9 20250114 plate1 control     2         300uL       1.02 
    ## 10 20250114 plate1 control     3         100uL       1.01 
    ## # ℹ 20 more rows
…
